{
  "project_info": {
    "project_number": "562426517125",
    "firebase_url": "https://ta-smartfond-cee0d-default-rtdb.asia-southeast1.firebasedatabase.app",
    "project_id": "ta-smartfond-cee0d",
    "storage_bucket": "ta-smartfond-cee0d.appspot.com"
  },
  "client": [
    {
      "client_info": {
        "mobilesdk_app_id": "1:562426517125:android:a00efcb3a2e6e085e8fbec",
        "android_client_info": {
          "package_name": "com.example.ta_smartfond"
        }
      },
      "oauth_client": [
        {
          "client_id": "562426517125-ion5ld3rlhgrhf7e453du9adje3k01vs.apps.googleusercontent.com",
          "client_type": 3
        }
      ],
      "api_key": [
        {
          "current_key": "AIzaSyApBNHGaCxP-NN_oevOQwgG-RVNBquaAgQ"
        }
      ],
      "services": {
        "appinvite_service": {
          "other_platform_oauth_client": [
            {
              "client_id": "562426517125-ion5ld3rlhgrhf7e453du9adje3k01vs.apps.googleusercontent.com",
              "client_type": 3
            }
          ]
        }
      }
    },
    {
      "client_info": {
        "mobilesdk_app_id": "1:562426517125:android:10f3acf183e4c15ce8fbec",
        "android_client_info": {
          "package_name": "com.example.ta_smartfond.activity"
        }
      },
      "oauth_client": [
        {
          "client_id": "562426517125-ion5ld3rlhgrhf7e453du9adje3k01vs.apps.googleusercontent.com",
          "client_type": 3
        }
      ],
      "api_key": [
        {
          "current_key": "AIzaSyApBNHGaCxP-NN_oevOQwgG-RVNBquaAgQ"
        }
      ],
      "services": {
        "appinvite_service": {
          "other_platform_oauth_client": [
            {
              "client_id": "562426517125-ion5ld3rlhgrhf7e453du9adje3k01vs.apps.googleusercontent.com",
              "client_type": 3
            }
          ]
        }
      }
    }
  ],
  "configuration_version": "1"
}